<?xml version="1.0" encoding="UTF-8"?>
<svg xmlns="http://www.w3.org/2000/svg"
     xmlns:xlink="http://www.w3.org/1999/xlink" x="0px" y="0px" viewBox="-10 -10 50 50"
     enable-background="-10 -10 50 50" xml:space="preserve">
  <defs>
    <filter id="dropshadow" height="130%">
      <feGaussianBlur in="SourceAlpha" stdDeviation="1"/>
      <feOffset dx="1" dy="1" result="offsetblur"/>
      <feComponentTransfer xmlns="http://www.w3.org/2000/svg">
        <feFuncA type="linear" slope="0.5"/>
      </feComponentTransfer>
      <feMerge>
        <feMergeNode/>
        <feMergeNode in="SourceGraphic"/>
      </feMerge>
    </filter>
  </defs>
  <g fill="none" fill-rule="evenodd" filter="url(#dropshadow)">
    <g id="Group" fill="#603813">
      <path d="M5.65853659,30.2358974 C4.48780488,29.2512821 3.66829268,27.8974359 3.39512195,26.4615385 L0.156097561,9.92820513 C-0.117073171,8.45128205 0.156097561,6.97435897 0.975609756,5.74358974 C1.79512195,4.55384615 3.00487805,3.77435897 4.44878049,3.56923077 L27.2,0.287179487 C27.4341463,0.246153846 27.7073171,0.246153846 27.9414634,0.246153846 C29.2292683,0.246153846 30.3219512,0.779487179 31.0243902,1.68205128 C31.7658537,2.66666667 32.0390244,3.97948718 31.7268293,5.41538462 L27.3170732,26.5025641 C27.004878,27.9384615 26.2243902,29.2512821 25.0146341,30.2769231 C23.8439024,31.2615385 22.4,31.8358974 21.0341463,31.8358974 L9.63902439,31.8358974 C8.23414634,31.7948718 6.82926829,31.2205128 5.65853659,30.2358974 Z" id="Shape" stroke="#4D2C10" stroke-width="2"></path>
      <path d="M27.4731707,2.37948718 L4.72195122,5.66153846 C3.86341463,5.78461538 3.12195122,6.23589744 2.65365854,6.97435897 C2.18536585,7.71282051 1.9902439,8.57435897 2.18536585,9.47692308 L5.42439024,26.0102564 C5.81463415,27.9794872 7.72682927,29.6205128 9.63902439,29.6205128 L21.0341463,29.6205128 C22.9463415,29.6205128 24.897561,27.9794872 25.2878049,26.0102564 L29.697561,4.92307692 C29.8536585,4.14358974 29.7756098,3.44615385 29.4243902,2.99487179 C29.0731707,2.58461538 28.5658537,2.33846154 27.9414634,2.33846154 C27.7853659,2.33846154 27.6292683,2.33846154 27.4731707,2.37948718 Z" id="Shape" stroke="#B3967B" stroke-width="1"></path>
    </g>
    <g id="Group" transform="translate(5.073171, 9.692308)" fill="#FFFFFF">
      <polygon id="Shape" points="5.65853659 12.5538462 3.43414634 12.5538462 3.43414634 2.37948718 0.117073171 2.42051282 0.117073171 0.41025641 8.97560976 0.41025641 8.97560976 2.42051282 5.65853659 2.37948718"></polygon>
      <polygon id="Shape" points="17.1317073 7.34358974 12.4097561 7.34358974 12.4097561 12.5538462 10.1853659 12.5538462 10.1853659 0.369230769 12.4097561 0.369230769 12.4097561 5.33333333 17.1317073 5.33333333 17.1317073 0.369230769 19.3560976 0.369230769 19.3560976 12.5538462 17.1317073 12.5538462 17.1317073 7.34358974"></polygon>
    </g>
  </g>
</svg>