<?xml version="1.0" encoding="utf-8"?>
<svg xmlns="http://www.w3.org/2000/svg" xmlns:xlink="http://www.w3.org/1999/xlink"
     x="0px" y="0px" viewBox="34 35 32 32" enable-background="34 35 32 32" xml:space="preserve">
	<defs>
    <filter id="dropshadow" height="130%">
      <feGaussianBlur in="SourceAlpha" stdDeviation="1"/>
      <feOffset dx="1" dy="1" result="offsetblur"/>
      <feComponentTransfer xmlns="http://www.w3.org/2000/svg">
        <feFuncA type="linear" slope="0.2"/>
      </feComponentTransfer>
      <feMerge>
        <feMergeNode/>
        <feMergeNode in="SourceGraphic"/>
      </feMerge>
    </filter>
  </defs>
	<g filter="url(#dropshadow)">
		<path fill="#0066FF" stroke="#FFFFFF" stroke-width="0.5" d="M49,48c-1.8-1.4-3.5-2.7-4.7-4.6c-0.6-0.9-0.3-1.8,0.6-2.3
			c0.9-0.6,2-0.5,2.4,0.4C48.3,43.4,48.6,45.7,49,48z"/>
		<path fill="#0066FF" stroke="#FFFFFF" stroke-width="0.5" d="M51,48c0.3-2.2,0.6-4.4,1.7-6.4c0.5-1,1.4-1.2,2.3-0.7
			c1,0.5,1.4,1.5,0.9,2.3C54.6,45.2,52.7,46.5,51,48z"/>
		<path fill="#0066FF" stroke="#FFFFFF" stroke-width="0.5" d="M51.9,49.7c2.1-0.9,4.1-1.7,6.3-1.8c1.1-0.1,1.7,0.6,1.7,1.6
			c0,1.1-0.6,2-1.6,1.9C56.1,51.4,54,50.5,51.9,49.7z"/>
		<path fill="#0066FF" stroke="#FFFFFF" stroke-width="0.5" d="M48.1,49.6c-2.1,0.9-4.1,1.8-6.3,1.9c-1.1,0.1-1.7-0.6-1.8-1.6
			c-0.1-1.1,0.5-2,1.5-1.9C43.8,48,45.9,48.9,48.1,49.6z"/>
		<path fill="#0066FF" stroke="#FFFFFF" stroke-width="0.5" d="M48.9,51.4c-0.3,2.2-0.5,4.4-1.5,6.4c-0.5,1-1.4,1.2-2.3,0.7
			c-1-0.5-1.4-1.4-0.9-2.3C45.4,54.3,47.2,52.9,48.9,51.4z"/>
		<path fill="#0066FF" stroke="#FFFFFF" stroke-width="0.5" d="M51,51.4c1.8,1.4,3.5,2.7,4.7,4.6c0.6,0.9,0.3,1.8-0.6,2.3
			c-0.9,0.6-2,0.5-2.4-0.4C51.6,55.9,51.4,53.7,51,51.4z"/>
		<circle fill="#0066FF" stroke="#FFFFFF" stroke-width="0.5" cx="50" cy="49.8" r="1"/>
	</g>
</svg>
